SLBP analysis
…
Using LRT

ddw <- nbinomLRT(ddw, full = ~type, reduced = ~1)

Using Wald test

ddw <-  nbinomWaldTest(ddw)

1.7.1 Extract significant windows

resultWindows <- resultsDEWSeq(ddw, contrast = c("type", "IP", "SMI"), 
                               tidy = TRUE) %>% as_tibble
resultWindows

## # A tibble: 9,211 x 20
##    chromosome  begin    end width strand unique_id gene_id gene_name gene_type
##    <chr>       <dbl>  <int> <int> <chr>  <chr>     <chr>   <chr>     <chr>    
##  1 chr1       6.30e5 6.30e5    50 +      ENSG0000 ENSG00 MTND2P28  unproces
##  2 chr1       1.06e6 1.06e6    50 +      ENSG0000 ENSG00 AL645608 sense_in
##  3 chr1       1.48e6 1.48e6    50 +      ENSG0000 ENSG00 ATAD3B    protein_
##  4 chr1       1.52e6 1.52e6    50 +      ENSG0000 ENSG00 ATAD3A    protein_
##  5 chr1       2.23e6 2.23e6    50 +      ENSG0000 ENSG00 SKI       protein_
##  6 chr1       3.63e6 3.63e6    50 +      ENSG0000 ENSG00 TPRG1L    protein_
##  7 chr1       6.21e6 6.21e6    50 +      ENSG0000 ENSG00 RNF207    protein_
##  8 chr1       6.58e6 6.58e6    39 +      ENSG0000 ENSG00 ZBTB48    protein_
##  9 chr1       1.04e7 1.04e7    50 +      ENSG0000 ENSG00 PGD       protein_
## 10 chr1       1.05e7 1.05e7    50 +      ENSG0000 ENSG00 PEX14     protein_
## #  with 9,201 more rows, and 11 more variables: gene_region <chr>,
## #   Nr_of_region <int>, Total_nr_of_region <int>, window_number <int>,
## #   baseMean <dbl>, log2FoldChange <dbl>, lfcSE <dbl>, stat <dbl>,
## #   pvalue <dbl>, pSlidingWindows <dbl>, pSlidingWindows.adj <dbl>
…
resultRegions

## # A tibble: 111 x 21
##    chromosome region_begin region_end strand windows_in_regi region_length
##    <chr>             <dbl>      <int> <fct>             <dbl>         <int>
##  1 chr1          149813270  149813380 -                     4           110
##  2 chr1          149840697  149840767 -                     2            70
##  3 chr1          149842207  149842357 -                     6           150
##  4 chr1          149843440  149843533 +                     4            93
##  5 chr1          149850292  149850362 -                     2            70
##  6 chr1          149886138  149886388 -                    11           250
##  7 chr1          149886498  149886628 -                     5           130
##  8 chr1          149886974  149887024 +                     1            50
##  9 chr1          149887254  149887344 +                     3            90
## 10 chr1          149887523  149887673 -                     5           150
## #  with 101 more rows, and 15 more variables: padj_min <dbl>, padj_mean <dbl>,
## #   padj_max <dbl>, log2FoldChange_min <dbl>, log2FoldChange_mean <dbl>,
## #   log2FoldChange_max <dbl>, regionStartId <chr>, gene_id <fct>,
## #   gene_name <chr>, gene_type <chr>, gene_region <chr>, Nr_of_region <dbl>,
## #   Total_nr_of_region <dbl>, window_number <dbl>, unique_ids <chr>
…
